[gd_scene load_steps=2 format=2]

[ext_resource path="res://src/scripts/Game/Minions/Weapons/Abstracts/RangedAttack.gd" type="Script" id=1]

[node name="RangedAttack" type="Spatial"]
script = ExtResource( 1 )
