[gd_scene load_steps=3 format=2]

[ext_resource path="res://scenes/Interface/Interface.tscn" type="PackedScene" id=1]
[ext_resource path="res://scenes/Game/Game.tscn" type="PackedScene" id=2]

[node name="Main" type="Node"]

[node name="Interface" parent="." instance=ExtResource( 1 )]

[node name="Game" parent="." instance=ExtResource( 2 )]
