[gd_resource type="ArrayMesh" format=2]

[resource]
resource_name = "Cone"
surfaces/0 = {
"aabb": AABB( -0.475528, -1.25, -0.5, 0.951057, 2.5, 1 ),
"array_data": PoolByteArray( 0, 0, 0, 0, 0, 0, 160, 191, 0, 0, 0, 191, 218, 23, 138, 0, 66, 108, 0, 127, 0, 52, 20, 56, 0, 0, 0, 0, 0, 0, 160, 191, 0, 0, 0, 191, 0, 129, 0, 0, 127, 0, 0, 129, 0, 58, 20, 56, 0, 0, 0, 0, 0, 0, 160, 191, 0, 0, 0, 191, 38, 23, 138, 0, 66, 148, 0, 127, 0, 52, 20, 56, 24, 121, 150, 62, 0, 0, 160, 191, 189, 27, 207, 190, 0, 129, 0, 0, 126, 0, 0, 129, 32, 59, 114, 56, 24, 121, 150, 62, 0, 0, 160, 191, 189, 27, 207, 190, 38, 23, 138, 0, 66, 148, 0, 127, 65, 54, 114, 56, 24, 121, 150, 62, 0, 0, 160, 191, 189, 27, 207, 190, 100, 23, 183, 0, 29, 133, 0, 127, 65, 54, 114, 56, 113, 120, 243, 62, 0, 0, 160, 191, 121, 55, 30, 190, 0, 129, 0, 0, 127, 0, 0, 129, 211, 59, 104, 57, 113, 120, 243, 62, 0, 0, 160, 191, 121, 55, 30, 190, 100, 23, 183, 0, 29, 133, 0, 127, 166, 55, 104, 57, 113, 120, 243, 62, 0, 0, 160, 191, 121, 55, 30, 190, 124, 23, 0, 0, 23, 132, 0, 127, 166, 55, 104, 57, 112, 120, 243, 62, 0, 0, 160, 191, 123, 55, 30, 62, 0, 129, 0, 0, 127, 0, 0, 129, 211, 59, 151, 58, 112, 120, 243, 62, 0, 0, 160, 191, 123, 55, 30, 62, 100, 23, 73, 0, 29, 133, 0, 127, 166, 55, 151, 58, 112, 120, 243, 62, 0, 0, 160, 191, 123, 55, 30, 62, 124, 23, 0, 0, 23, 132, 0, 127, 166, 55, 151, 58, 23, 121, 150, 62, 0, 0, 160, 191, 190, 27, 207, 62, 0, 129, 0, 0, 127, 0, 0, 129, 32, 59, 141, 59, 23, 121, 150, 62, 0, 0, 160, 191, 190, 27, 207, 62, 38, 23, 118, 0, 66, 148, 0, 127, 65, 54, 141, 59, 23, 121, 150, 62, 0, 0, 160, 191, 190, 27, 207, 62, 100, 23, 73, 0, 29, 133, 0, 127, 65, 54, 141, 59, 46, 189, 59, 179, 0, 0, 160, 191, 0, 0, 0, 63, 218, 23, 118, 0, 66, 108, 0, 127, 255, 51, 235, 59, 46, 189, 59, 179, 0, 0, 160, 191, 0, 0, 0, 63, 0, 129, 0, 0, 127, 0, 0, 129, 0, 58, 235, 59, 46, 189, 59, 179, 0, 0, 160, 191, 0, 0, 0, 63, 38, 23, 118, 0, 66, 148, 0, 127, 255, 51, 235, 59, 26, 121, 150, 190, 0, 0, 160, 191, 188, 27, 207, 62, 156, 23, 73, 0, 29, 123, 0, 127, 248, 46, 141, 59, 26, 121, 150, 190, 0, 0, 160, 191, 188, 27, 207, 62, 218, 23, 118, 0, 66, 108, 0, 127, 248, 46, 141, 59, 26, 121, 150, 190, 0, 0, 160, 191, 188, 27, 207, 62, 0, 129, 0, 0, 127, 0, 0, 129, 223, 56, 141, 59, 112, 120, 243, 190, 0, 0, 160, 191, 125, 55, 30, 62, 132, 23, 0, 0, 23, 124, 0, 127, 145, 37, 151, 58, 112, 120, 243, 190, 0, 0, 160, 191, 125, 55, 30, 62, 156, 23, 73, 0, 29, 123, 0, 127, 145, 37, 151, 58, 112, 120, 243, 190, 0, 0, 160, 191, 125, 55, 30, 62, 0, 129, 0, 0, 126, 0, 0, 129, 44, 56, 151, 58, 112, 120, 243, 190, 0, 0, 160, 191, 126, 55, 30, 190, 132, 23, 0, 0, 23, 124, 0, 127, 145, 37, 104, 57, 112, 120, 243, 190, 0, 0, 160, 191, 126, 55, 30, 190, 156, 23, 183, 0, 29, 123, 0, 127, 145, 37, 104, 57, 112, 120, 243, 190, 0, 0, 160, 191, 126, 55, 30, 190, 0, 129, 0, 0, 127, 0, 0, 129, 44, 56, 104, 57, 25, 121, 150, 190, 0, 0, 160, 191, 188, 27, 207, 190, 156, 23, 183, 0, 29, 123, 0, 127, 248, 46, 114, 56, 25, 121, 150, 190, 0, 0, 160, 191, 188, 27, 207, 190, 218, 23, 138, 0, 66, 108, 0, 127, 248, 46, 114, 56, 25, 121, 150, 190, 0, 0, 160, 191, 188, 27, 207, 190, 0, 129, 0, 0, 127, 0, 0, 129, 223, 56, 114, 56, 0, 0, 0, 0, 0, 0, 160, 63, 0, 0, 0, 128, 132, 23, 0, 0, 23, 124, 0, 127, 0, 52, 0, 58, 0, 0, 0, 0, 0, 0, 160, 63, 0, 0, 0, 128, 156, 23, 73, 0, 29, 123, 0, 127, 0, 52, 0, 58, 0, 0, 0, 0, 0, 0, 160, 63, 0, 0, 0, 128, 156, 23, 183, 0, 29, 123, 0, 127, 0, 52, 0, 58, 0, 0, 0, 0, 0, 0, 160, 63, 0, 0, 0, 128, 218, 23, 138, 0, 66, 108, 0, 127, 0, 52, 0, 58, 0, 0, 0, 0, 0, 0, 160, 63, 0, 0, 0, 128, 218, 23, 118, 0, 66, 108, 0, 127, 0, 52, 0, 58, 0, 0, 0, 0, 0, 0, 160, 63, 0, 0, 0, 128, 38, 23, 118, 0, 66, 148, 0, 127, 0, 52, 0, 58, 0, 0, 0, 0, 0, 0, 160, 63, 0, 0, 0, 128, 38, 23, 138, 0, 66, 148, 0, 127, 0, 52, 0, 58, 0, 0, 0, 0, 0, 0, 160, 63, 0, 0, 0, 128, 100, 23, 183, 0, 29, 133, 0, 127, 0, 52, 0, 58, 0, 0, 0, 0, 0, 0, 160, 63, 0, 0, 0, 128, 100, 23, 73, 0, 29, 133, 0, 127, 0, 52, 0, 58, 0, 0, 0, 0, 0, 0, 160, 63, 0, 0, 0, 128, 124, 23, 0, 0, 23, 132, 0, 127, 0, 52, 0, 58 ),
"array_index_data": PoolByteArray( 2, 0, 4, 0, 36, 0, 5, 0, 7, 0, 37, 0, 8, 0, 11, 0, 39, 0, 10, 0, 14, 0, 38, 0, 13, 0, 17, 0, 35, 0, 15, 0, 19, 0, 34, 0, 18, 0, 22, 0, 31, 0, 21, 0, 24, 0, 30, 0, 29, 0, 3, 0, 1, 0, 3, 0, 9, 0, 6, 0, 9, 0, 16, 0, 12, 0, 16, 0, 23, 0, 20, 0, 23, 0, 29, 0, 26, 0, 29, 0, 9, 0, 3, 0, 9, 0, 23, 0, 16, 0, 9, 0, 29, 0, 23, 0, 25, 0, 27, 0, 32, 0, 28, 0, 0, 0, 33, 0 ),
"blend_shape_data": [  ],
"format": 97559,
"index_count": 54,
"primitive": 4,
"skeleton_aabb": [  ],
"vertex_count": 40
}
