[gd_scene load_steps=4 format=2]

[ext_resource path="res://src/scripts/Game/Map/Floor.gd" type="Script" id=1]
[ext_resource path="res://assets/resources/materials/PlayerReactiveFloor.tres" type="Material" id=2]

[sub_resource type="PlaneMesh" id=1]
size = Vector2( 10, 10 )

[node name="Floor" type="MeshInstance"]
mesh = SubResource( 1 )
material/0 = ExtResource( 2 )
script = ExtResource( 1 )
