[gd_scene load_steps=4 format=2]

[ext_resource path="res://src/scripts/Game/Map/FloorCollider.gd" type="Script" id=1]

[sub_resource type="PhysicsMaterial" id=1]
bounce = 1.0
absorbent = true

[sub_resource type="BoxShape" id=2]
extents = Vector3( 100, 2.5, 100 )

[node name="FloorCollider" type="StaticBody"]
physics_material_override = SubResource( 1 )
script = ExtResource( 1 )
__meta__ = {
"is_floor": true
}

[node name="CollisionShape" type="CollisionShape" parent="."]
transform = Transform( 1, 0, 0, 0, 1, 0, 0, 0, 1, 0, -2.5, 0 )
shape = SubResource( 2 )
