[gd_scene load_steps=4 format=2]

[ext_resource path="res://scenes/Game/Minions/CapsuleMinion.tscn" type="PackedScene" id=1]
[ext_resource path="res://src/scripts/Game/Minions/MageMinion.gd" type="Script" id=2]
[ext_resource path="res://scenes/Game/Minions/Weapons/BasicStaffWeapon.tscn" type="PackedScene" id=3]

[node name="MageMinion" type="Spatial"]

[node name="CapsuleMinionBody" parent="." instance=ExtResource( 1 )]
script = ExtResource( 2 )
right_hand = ExtResource( 3 )
