[gd_scene load_steps=4 format=2]

[ext_resource path="res://scenes/Game/Minions/CapsuleMinion.tscn" type="PackedScene" id=1]
[ext_resource path="res://src/scripts/Game/Minions/RangedMinion.gd" type="Script" id=2]
[ext_resource path="res://scenes/Game/Minions/Weapons/PistolWeapon.tscn" type="PackedScene" id=3]

[node name="RangedMinion" type="Spatial"]

[node name="CapsuleMinionBody" parent="." instance=ExtResource( 1 )]
transform = Transform( 0.4, 0, 0, 0, 0.4, 0, 0, 0, 0.4, 0.00514615, 0.00470185, 0.0089798 )
script = ExtResource( 2 )
right_hand = ExtResource( 3 )
